{
  "type": "FeatureCollection",
  "name": "Toei Oedo Line" 
  "features": [{
  	"type": "Feature",
    "geometry": {"type": "Point", "coordinates": [102.0, 0.5]},
    "properties": {"name": "Toei Oedo Line"}
  },{
  	"type": "Feature",
    "geometry": {
      "type": "LineString",
      "coordinates": [[139.6296243,35.758508],[139.6309351,35.7585006],[139.6312904,35.7584871],[139.6316258,35.7584197],[139.6320176,35.7582877],[139.6323862,35.7581206],[139.632666,35.7579236],[139.6331825,35.7574929],[139.633685,35.7569327],[139.6339151,35.7565135],[139.6340889,35.7560524],[139.6342767,35.7550996],[139.6344223,35.7546537],[139.6345961,35.7542612],[139.6348638,35.7538648],[139.6352958,35.7534914],[139.6357748,35.7531407],[139.6363524,35.7528778],[139.6403688,35.7514219],[139.6446013,35.7499949],[139.6455781,35.7496317],[139.6463169,35.7492773],[139.6467034,35.7490404],[139.6472793,35.7486274],[139.6474765,35.7483745],[139.6477132,35.7479296],[139.6478118,35.7475838],[139.6479858,35.7464626],[139.6480416,35.7457156],[139.6480751,35.7454213],[139.6481866,35.7449142],[139.6484823,35.7441853],[139.6489676,35.7432662],[139.6490624,35.7430852],[139.6491024,35.7428691],[139.6491281,35.7421716],[139.6491374,35.7414774],[139.6490806,35.7400406],[139.6491876,35.7387536],[139.6492748,35.7384677],[139.6494475,35.7382087],[139.6497067,35.7379709],[139.6499174,35.7378209],[139.6503,35.7374923],[139.6506755,35.737282],[139.6510923,35.7371144],[139.651573,35.7370504],[139.652065,35.7370504],[139.6526996,35.7371052],[139.6538063,35.737233],[139.6538825,35.7372454],[139.6544905,35.7373476],[139.6548171,35.7373958],[139.6551844,35.7374501],[139.6554586,35.737502],[139.6558003,35.7375568],[139.6561082,35.7375538],[139.6565401,35.7374867],[139.6591417,35.7370009],[139.6596715,35.7369115],[139.6596945,35.7369076],[139.6599386,35.7368497],[139.6601414,35.7367704],[139.6603367,35.7366942],[139.6605056,35.7366028],[139.6607272,35.7364473],[139.6609488,35.736301],[139.6625185,35.7352981],[139.6630503,35.73493],[139.6632521,35.734792],[139.6636345,35.7346498],[139.6656738,35.7342058],[139.6663907,35.7340247],[139.6703804,35.7326152],[139.6726749,35.7317977],[139.6735509,35.7314308],[139.6775514,35.7295556],[139.6793754,35.7285224],[139.680164,35.7280804],[139.6806065,35.7278191],[139.6809301,35.7276088],[139.6810996,35.7274843],[139.681257,35.7273609],[139.6813875,35.7272305],[139.6814886,35.7271123],[139.6815989,35.7269732],[139.681699,35.7268102],[139.6819849,35.7261823],[139.6833051,35.7236684],[139.6836262,35.7232032],[139.6840116,35.7227129],[139.6843971,35.7223645],[139.6847312,35.7221265],[139.6861674,35.7211557],[139.6870214,35.7205884],[139.6876354,35.7201082],[139.6879677,35.7198795],[139.6881874,35.7196646],[139.6883395,35.7194176],[139.688424,35.7191707],[139.6885028,35.7187957],[139.6884465,35.7184115],[139.6881367,35.7177118],[139.6874213,35.7162666],[139.6863802,35.7140525],[139.6857689,35.7127279],[139.6845296,35.7101483],[139.6837129,35.7083919],[139.6831327,35.7071112],[139.6828466,35.7064752],[139.6827145,35.7061261],[139.682486,35.7034597],[139.6824358,35.7026624],[139.6824413,35.7022411],[139.6826143,35.701634],[139.6829044,35.7010406],[139.6829936,35.7008231],[139.6830383,35.7005694],[139.683055,35.7003157],[139.6829269,35.6972411],[139.6828851,35.6965503],[139.6826277,35.694965],[139.6822762,35.6932432],[139.6820691,35.692294],[139.6818306,35.6910706],[139.6817804,35.6906577],[139.681862,35.6901786],[139.6819073,35.6900507],[139.6819938,35.6898064],[139.6821257,35.6896673],[139.6823516,35.6895516],[139.6826466,35.6894379],[139.6830231,35.6894139],[139.6835253,35.6894991],[139.6840336,35.6896688],[139.6847705,35.6899897],[139.6855902,35.6903468],[139.6858834,35.6904142],[139.6861973,35.6904471],[139.6865094,35.6904522],[139.6868871,35.6904376],[139.6872253,35.6903441],[139.6879017,35.69016],[139.6885349,35.690087],[139.6891573,35.6900811],[139.6914735,35.6903852],[139.6942714,35.6907998],[139.6963567,35.6910786],[139.6973178,35.6911483],[139.6981931,35.6912947],[139.6987852,35.6915037],[139.6988436,35.69155],[139.699137,35.6917825],[139.6992486,35.6919986],[139.6993172,35.6923331],[139.6992247,35.6928337],[139.6991027,35.693504],[139.6985964,35.695072],[139.6981073,35.6963404],[139.6979785,35.6969606],[139.6979935,35.6972624],[139.6980558,35.69756],[139.698236,35.6978178],[139.6985192,35.6979572],[139.6987852,35.6979781],[139.7008018,35.6980617],[139.7026097,35.69813],[139.7041029,35.6982625],[139.704592,35.6982625],[139.7050725,35.6982276],[139.7075497,35.6979339],[139.7089882,35.6977288],[139.7094482,35.6977049],[139.7115482,35.6976892],[139.7133708,35.697758],[139.7144335,35.697795],[139.7145755,35.6978051],[139.7147122,35.6978313],[139.714849,35.6978694],[139.7149758,35.6979149],[139.7151201,35.6979835],[139.7158328,35.6983355],[139.7161553,35.6984992],[139.7164061,35.6986122],[139.7167443,35.6987504],[139.7169793,35.6988346],[139.7175083,35.6990048],[139.7185365,35.6993217],[139.7195156,35.6996128],[139.7203347,35.6999035],[139.7205411,35.6999873],[139.7206928,35.7000267],[139.7208687,35.7000661],[139.7210811,35.700076],[139.721251,35.7000563],[139.7214937,35.6999922],[139.7218456,35.6998936],[139.722234,35.6998099],[139.7227983,35.6997162],[139.7235022,35.6996719],[139.7255875,35.6994676],[139.7256968,35.6994576],[139.7261235,35.6994107],[139.7270782,35.6994032],[139.7277254,35.6994502],[139.7282351,35.6994304],[139.7291392,35.6992777],[139.7296489,35.6991841],[139.7299462,35.6991446],[139.7302436,35.6991446],[139.7306258,35.6991791],[139.7317302,35.6994206],[139.7330469,35.6998542],[139.7353042,35.7006525],[139.7359501,35.7009139],[139.7369546,35.7013423],[139.7374704,35.7016183],[139.7381439,35.70218],[139.7391087,35.7031261],[139.7392489,35.7032234],[139.7394111,35.7033045],[139.7409189,35.7034868],[139.7412587,35.7034523],[139.7424541,35.702999],[139.7440378,35.7026836],[139.7442076,35.7027233],[139.744411,35.7026861],[139.7450056,35.7028438],[139.7453862,35.7029796],[139.7457905,35.7031147],[139.746064,35.7032132],[139.7464277,35.7033352],[139.7467022,35.7034626],[139.7469636,35.7036642],[139.7471596,35.7038977],[139.7472445,35.704033],[139.7473556,35.704285],[139.7475223,35.7048289],[139.7478601,35.7058087],[139.7480818,35.7063077],[139.748336,35.7067505],[139.7486825,35.7071594],[139.7490198,35.7075159],[139.7494726,35.7078385],[139.7497406,35.7079774],[139.7501237,35.7081946],[139.7503461,35.7083086],[139.7504898,35.7083724],[139.750771,35.7084426],[139.7510154,35.7084784],[139.751208,35.7085014],[139.7513763,35.7085134],[139.7527272,35.7085022],[139.7530648,35.7085016],[139.7534263,35.7084922],[139.7537634,35.708456],[139.7539404,35.7084293],[139.7541429,35.708376],[139.7543231,35.708295],[139.7556493,35.7075987],[139.7558645,35.7074997],[139.7560118,35.7074429],[139.7561687,35.7074015],[139.7563988,35.7073533],[139.7565578,35.7073404],[139.7576041,35.7073757],[139.7588762,35.707411],[139.7593798,35.7074248],[139.7597465,35.7074523],[139.760541,35.7075186],[139.7611122,35.7075413],[139.7629205,35.7075374],[139.7637152,35.7075258],[139.7650096,35.7073983],[139.7655663,35.7073519],[139.7658281,35.7073442],[139.7660945,35.7073713],[139.766461,35.7074447],[139.7669701,35.707607],[139.7672842,35.7077886],[139.767841,35.7080938],[139.7681122,35.7082214],[139.7684215,35.7082948],[139.7688546,35.7082986],[139.7697825,35.70826],[139.7723033,35.7080652],[139.7724327,35.7080611],[139.7728832,35.7080091],[139.7735405,35.7079744],[139.7757881,35.7076832],[139.7765496,35.7076125],[139.7780665,35.7074384],[139.7820354,35.7070079],[139.7849358,35.7066963],[139.7879882,35.7063707],[139.7894367,35.7062521],[139.7907257,35.706084],[139.7918298,35.7057024],[139.7924363,35.7054789],[139.7932846,35.7051692],[139.7934488,35.7051352],[139.7936226,35.7051143],[139.7938511,35.7050986],[139.7940024,35.7050986],[139.7942181,35.7051012],[139.7945271,35.7050908],[139.7946945,35.7050673],[139.7950485,35.7049366],[139.7952416,35.7047954],[139.7954412,35.7046308],[139.7956633,35.7044086],[139.7959111,35.7041577],[139.7961365,35.7039799],[139.7964036,35.7037944],[139.7966804,35.7036506],[139.796806,35.703499],[139.7968671,35.70335],[139.7969025,35.703188],[139.7969479,35.7026989],[139.7970526,35.701296],[139.797444,35.696861],[139.79825,35.6880556],[139.7984007,35.6860854],[139.7985748,35.6839647],[139.7986059,35.6833486],[139.7987788,35.6820963],[139.7988563,35.6815597],[139.7990274,35.6799267],[139.7990333,35.6796406],[139.7990333,35.6795715],[139.7990178,35.6794991],[139.7989995,35.6794638],[139.7989696,35.6794226],[139.7980025,35.6782714],[139.7963692,35.6762095],[139.796291,35.6760988],[139.7962509,35.6760254],[139.7962159,35.6759323],[139.7961881,35.675845],[139.7961723,35.6757303],[139.7961513,35.6754018],[139.7960683,35.6748928],[139.795962,35.6743331],[139.7959272,35.6741662],[139.7958986,35.6740624],[139.7958452,35.6739399],[139.7957668,35.6738083],[139.7956907,35.6736798],[139.7955817,35.6734989],[139.7949361,35.6725145],[139.7948587,35.6723976],[139.7945638,35.671993],[139.7940231,35.6715002],[139.7919395,35.6698217],[139.7888625,35.6674862],[139.7862162,35.6654756],[139.784707,35.6643694],[139.7831295,35.6632287],[139.7772034,35.6589432],[139.7760351,35.6581563],[139.7753742,35.6577259],[139.7748444,35.6574455],[139.7744848,35.6573626],[139.7740911,35.6573586],[139.7737801,35.6573784],[139.7731775,35.6575166],[139.7729879,35.6575995],[139.7727643,35.6577693],[139.7725116,35.6580457],[139.7723464,35.6582629],[139.7721617,35.6586341],[139.7713647,35.6605216],[139.7711168,35.6609323],[139.7709273,35.6612087],[139.7702128,35.6621011],[139.7694255,35.6628039],[139.7677634,35.6641385],[139.7669096,35.6648891],[139.764789,35.6665945],[139.7644159,35.6668459],[139.7642578,35.6669017],[139.7640723,35.6669185],[139.7638867,35.6669073],[139.7636667,35.6668292],[139.7633575,35.6667231],[139.7625916,35.6663213],[139.7624045,35.6661871],[139.7622125,35.6660094],[139.7617849,35.6655455],[139.7601715,35.663682],[139.7596758,35.6630661],[139.7595398,35.6626753],[139.7594669,35.6623357],[139.7592725,35.6617869],[139.7591169,35.6614183],[139.7588761,35.659925],[139.758505,35.6585402],[139.7583366,35.6578701],[139.7581201,35.6573006],[139.7578658,35.6569097],[139.7577009,35.6567338],[139.7575737,35.6566612],[139.7573882,35.6566193],[139.7571305,35.6566082],[139.7567594,35.6566026],[139.7561443,35.6566473],[139.7546916,35.6567938],[139.7517749,35.6570804],[139.7514468,35.6570776],[139.7511932,35.6570391],[139.7509564,35.6569869],[139.7507535,35.6569182],[139.7505336,35.6568248],[139.7504051,35.6567341],[139.7502495,35.6566214],[139.7501142,35.6564373],[139.7498825,35.6547219],[139.7498673,35.6546097],[139.7497489,35.6544311],[139.7495798,35.6541838],[139.7493498,35.6539914],[139.7490522,35.6538815],[139.7487478,35.653843],[139.7483791,35.653854],[139.7481965,35.653887],[139.747936,35.6539914],[139.7477162,35.6540903],[139.7473205,35.6542497],[139.7468571,35.6543926],[139.7460588,35.6546953],[139.7457962,35.6547782],[139.745476,35.6548441],[139.7438925,35.6549696],[139.7422138,35.6551356],[139.7416685,35.6552639],[139.7397696,35.6557652],[139.7386551,35.6560101],[139.7370255,35.6563072],[139.7361326,35.6564959],[139.7350848,35.6567139],[139.7339043,35.6569786],[139.7335879,35.6570976],[139.7332621,35.6572932],[139.733026,35.6574966],[139.7327757,35.6577958],[139.7326529,35.6579877],[139.7324499,35.658544],[139.7323413,35.6589046],[139.7323318,35.6591962],[139.7323743,35.6594955],[139.7325207,35.6600173],[139.7328843,35.6613102],[139.7328418,35.6620238],[139.7323507,35.6630405],[139.7321902,35.6633052],[139.7319116,35.6635507],[139.7310522,35.6643449],[139.7291681,35.6656953],[139.7278648,35.666616],[139.727608,35.6669849],[139.7273501,35.6672068],[139.7272368,35.6676403],[139.7269062,35.6694318],[139.7264847,35.6709926],[139.726311,35.6712422],[139.7260973,35.6713778],[139.7250222,35.6716979],[139.7246482,35.6718335],[139.7244078,35.6720505],[139.7241874,35.6724194],[139.7240226,35.672811],[139.7233869,35.6741169],[139.7231036,35.6744392],[139.7228203,35.6745696],[139.7223858,35.6747614],[139.7221025,35.6750222],[139.7202892,35.6785205],[139.7200437,35.6787966],[139.7198076,35.6790038],[139.7194771,35.6791956],[139.7190993,35.6793336],[139.7186082,35.6794871],[139.7179943,35.6795868],[139.7173616,35.6796482],[139.7168988,35.6796405],[139.7163133,35.6796175],[139.7154539,35.6796942],[139.7153871,35.6797174],[139.7136921,35.6801615],[139.7106846,35.6809446],[139.7101935,35.681052],[139.7097591,35.6811364],[139.7093908,35.6811901],[139.7087824,35.6811954],[139.7067923,35.6811249],[139.706198,35.6810436],[139.705617,35.6808157],[139.7051095,35.6805391],[139.7046324,35.6803984],[139.7041545,35.680333],[139.7035735,35.6804306],[139.7033331,35.680512],[139.703026,35.6806584],[139.702652,35.6809188],[139.7025117,35.6810436],[139.7023648,35.6812334],[139.7022914,35.6813582],[139.7021578,35.6815643],[139.7018306,35.6827197],[139.7014678,35.6840299],[139.7012229,35.6848622],[139.7010693,35.6852907],[139.7008623,35.6855131],[139.7003882,35.6859416],[139.6999274,35.6864027],[139.6995668,35.6869993],[139.6992529,35.6878617],[139.6990058,35.6886373],[139.6988645,35.6895488],[139.6987454,35.6901994],[139.6986385,35.6904868],[139.6984048,35.6906658],[139.6980909,35.6907797],[139.6975367,35.690899],[139.6970225,35.690937],[139.696388,35.6909261],[139.6942714,35.6907998]]
      },
    "properties": {
      "prop0": "value0",
      "prop1": 0.0
      }
    }
   ]
 }