{
  "type": "FeatureCollection",
  "name": "Yamanote Line",
  "features":[{
    "type": "Feature",
    "properties": {
      "name": "Yamanote Line",
      "description": null
    },
    "geometry": {
      "type": "LineString",
      "coordinates": [[ 139.728164180209205, 35.619794517444177 ], [ 139.727431261119591, 35.620820326741807 ], [ 139.727103323257211, 35.621406556925074 ], [ 139.726832054939393, 35.621866555843908 ], [ 139.726106935711812, 35.62284892040762 ], [ 139.725772821708887, 35.623321873870033 ], [ 139.725055530801512, 35.624293451275143 ], [ 139.724085797765014, 35.625666969696638 ], [ 139.723658321175407, 35.626229747476792 ], [ 139.723275042039887, 35.626707234741723 ], [ 139.722964184791294, 35.627010549261144 ], [ 139.722532048557696, 35.627397932715759 ], [ 139.722140241985187, 35.627702796712072 ], [ 139.721785119169596, 35.627928564674733 ], [ 139.721364896679603, 35.628187704801739 ], [ 139.720182206309005, 35.6287197111022 ], [ 139.718514729217304, 35.629456011663187 ], [ 139.717909203098799, 35.629747999007812 ], [ 139.717534968913611, 35.630028268454879 ], [ 139.717054097979002, 35.630455846570307 ], [ 139.716626889381388, 35.631039898032611 ], [ 139.716362704636708, 35.631485289892971 ], [ 139.715924396474207, 35.632947853724851 ], [ 139.715701973828089, 35.633702108793408 ], [ 139.715439284211612, 35.634542523800803 ], [ 139.715032807425814, 35.636177202762617 ], [ 139.714894108905014, 35.637113134678621 ], [ 139.714797290359286, 35.637812225487863 ], [ 139.714659621019507, 35.638219715502679 ], [ 139.714466550292087, 35.638553004023727 ], [ 139.714164689939196, 35.638970978210537 ], [ 139.713790780206295, 35.639532645831309 ], [ 139.713529950981098, 35.640155390990188 ], [ 139.713418059466392, 35.640685382525923 ], [ 139.713063443732409, 35.641293345080832 ], [ 139.712606278729595, 35.642157451886753 ], [ 139.71240979831569, 35.642504966517457 ], [ 139.712171632879603, 35.642963176405011 ], [ 139.711484100566196, 35.644175396944988 ], [ 139.711305030470101, 35.64443858919357 ], [ 139.710946720186399, 35.645023008070751 ], [ 139.709690061662911, 35.647515127845537 ], [ 139.709468985045305, 35.647952290059962 ], [ 139.709089328623691, 35.648692849459877 ], [ 139.708185039503803, 35.650312617718562 ], [ 139.707869883484989, 35.650840092154702 ], [ 139.707500527419114, 35.65135097929258 ], [ 139.707112236969607, 35.651813564905872 ], [ 139.706788320306998, 35.652162534370433 ], [ 139.706046393795901, 35.653085460984187 ], [ 139.705212121343607, 35.653953305291559 ], [ 139.704476223320711, 35.654577886045153 ], [ 139.703134014302293, 35.65610430308498 ], [ 139.7023107002166, 35.657062550345202 ], [ 139.701936740044601, 35.657533283620509 ], [ 139.701548796941211, 35.658215550263542 ], [ 139.701381146286508, 35.658707453749699 ], [ 139.701266429548895, 35.659481995875304 ], [ 139.701307982452903, 35.660340722814901 ], [ 139.70139514209751, 35.661498306600691 ], [ 139.701460865385002, 35.662351620639967 ], [ 139.701593906456509, 35.663544472090628 ], [ 139.701810233559712, 35.665053730218943 ], [ 139.702023502037406, 35.66655855180052 ], [ 139.702310876060892, 35.668639284896273 ], [ 139.702491481020303, 35.670227922507109 ], [ 139.702753372103501, 35.671263813773479 ], [ 139.702906748844697, 35.671944956741832 ], [ 139.703183636972994, 35.672717454054059 ], [ 139.703938891326004, 35.674852053457563 ], [ 139.704035192671199, 35.675241352421772 ], [ 139.704090454457599, 35.675703144182997 ], [ 139.704026888146586, 35.676531354203398 ], [ 139.70390933891801, 35.678069410953562 ], [ 139.703786913823109, 35.678738975154261 ], [ 139.703521365360899, 35.679793503190673 ], [ 139.703145080013286, 35.681253443659259 ], [ 139.702920360409905, 35.682230284108371 ], [ 139.702650323849412, 35.683214112657687 ], [ 139.702292464054494, 35.684456585079083 ], [ 139.702043656918107, 35.685005670826662 ], [ 139.701704963562605, 35.685781927639113 ], [ 139.701481652034204, 35.686290533640523 ], [ 139.701197579250106, 35.687056348576107 ], [ 139.700879422268514, 35.687753766773973 ], [ 139.700537178467414, 35.688881413026692 ], [ 139.700402103801906, 35.689938510371128 ], [ 139.700347342024799, 35.69130684812167 ], [ 139.700323975675389, 35.692049209350643 ], [ 139.700191218546905, 35.692714847047213 ], [ 139.69989295386091, 35.6939066117667 ], [ 139.699796743967795, 35.694981248586792 ], [ 139.699796212881012, 35.695728371264899 ], [ 139.699946569030402, 35.696859621501488 ], [ 139.700112123933792, 35.698325992919628 ], [ 139.700265924221696, 35.700169945339582 ], [ 139.700368895200512, 35.701303880286162 ], [ 139.700545635663389, 35.703198122495188 ], [ 139.700826827214087, 35.704087510332727 ], [ 139.70118197698531, 35.705163948100171 ], [ 139.701868492678699, 35.707170162012751 ], [ 139.702236555838994, 35.70833161580272 ], [ 139.702704593436891, 35.70969534843492 ], [ 139.703237274736097, 35.711231981424717 ], [ 139.703631172905403, 35.712485458009773 ], [ 139.703882251620996, 35.713125766894997 ], [ 139.704105531565602, 35.713833116683027 ], [ 139.704757782200886, 35.715658587301363 ], [ 139.705253329014312, 35.717229824684843 ], [ 139.705857241840306, 35.71918879937801 ], [ 139.706313532997513, 35.720436695577312 ], [ 139.706805730029203, 35.72169823476483 ], [ 139.707314960178792, 35.722780310179168 ], [ 139.708119967862586, 35.724279948967862 ], [ 139.708749004886897, 35.725358762062008 ], [ 139.709660837139012, 35.726829773663461 ], [ 139.710267701979603, 35.727898645594998 ], [ 139.710818695640313, 35.728872675538213 ], [ 139.711360708489991, 35.729905594680879 ], [ 139.711943405531912, 35.731283385971309 ], [ 139.712516394953894, 35.732338082762489 ], [ 139.713009521517989, 35.733084545258862 ], [ 139.71363552352409, 35.733644842866468 ], [ 139.714706572799088, 35.734169263265478 ], [ 139.715623215331902, 35.734419979876797 ], [ 139.716831034002013, 35.734549750563488 ], [ 139.717423943798593, 35.73444767562264 ], [ 139.718355419980611, 35.734236689663931 ], [ 139.721188200935188, 35.733496874480707 ], [ 139.724302220921288, 35.732637009733061 ], [ 139.728473078563809, 35.73156784430082 ], [ 139.729879803989888, 35.731217579403513 ], [ 139.731157288377403, 35.730887661446062 ], [ 139.732107107748305, 35.730803620754301 ], [ 139.733157291639088, 35.730879699906701 ], [ 139.735541487491304, 35.731639694783631 ], [ 139.737839995255598, 35.732609061705013 ], [ 139.7414303709092, 35.734034877056388 ], [ 139.743933299369388, 35.735125285217279 ], [ 139.747056344616993, 35.736408521297818 ], [ 139.749713665697499, 35.737592836893207 ], [ 139.752454109498302, 35.738914147977567 ], [ 139.753440590459206, 35.73924237263833 ], [ 139.754086645637386, 35.739611461319377 ], [ 139.754711654719813, 35.740132864817262 ], [ 139.755213322080294, 35.740359387442723 ], [ 139.755876118517591, 35.740450240717237 ], [ 139.756524069865804, 35.740492524873851 ], [ 139.757196279661997, 35.740370531830237 ], [ 139.757808074833605, 35.740195481893423 ], [ 139.758630573778589, 35.739836576018398 ], [ 139.75918000335659, 35.739505729547247 ], [ 139.759835993700108, 35.738953198646122 ], [ 139.761074953864295, 35.737871422152097 ], [ 139.762525565761109, 35.736621388268503 ], [ 139.763282050503989, 35.735964452184938 ], [ 139.764178873526703, 35.735146944986013 ], [ 139.765090856328811, 35.734226686595107 ], [ 139.765556411991099, 35.733695263026043 ], [ 139.766002308783811, 35.733094284525052 ], [ 139.767385240527403, 35.731139678880197 ], [ 139.76814638328571, 35.730254565021923 ], [ 139.769048025581299, 35.729215787760957 ], [ 139.769816423727889, 35.72847564753058 ], [ 139.7711635380617, 35.727269649674128 ], [ 139.771967042868908, 35.726672635589203 ], [ 139.772737210859304, 35.72618625424245 ], [ 139.773432230507893, 35.725724029459371 ], [ 139.77406775731481, 35.725165108443022 ], [ 139.775394219777411, 35.723897691758381 ], [ 139.777037882545386, 35.722416593536522 ], [ 139.777756461757093, 35.721799137597372 ], [ 139.778303429302213, 35.721248578100472 ], [ 139.77902988656291, 35.720445610751753 ], [ 139.779501688979792, 35.719975239700418 ], [ 139.779657481789002, 35.719638048342873 ], [ 139.779733829569011, 35.719125644103947 ], [ 139.779692763634614, 35.718651767687753 ], [ 139.779609644685991, 35.718138121151682 ], [ 139.779481053774902, 35.717739714873623 ], [ 139.77913733637979, 35.717186698489563 ], [ 139.778527031276212, 35.716497540231558 ], [ 139.777541769835693, 35.715455839403241 ], [ 139.776678172276803, 35.714419978486092 ], [ 139.775829555239198, 35.713263745153007 ], [ 139.7750533750758, 35.71201698954301 ], [ 139.77477945496409, 35.711425190626073 ], [ 139.774638838229407, 35.710852568928573 ], [ 139.774679064085603, 35.710233132820328 ], [ 139.774858641147603, 35.709303106386088 ], [ 139.774884953365614, 35.708614131655203 ], [ 139.774565663022202, 35.706759408209273 ], [ 139.774216073438794, 35.704612108158237 ], [ 139.773869510441386, 35.70289612166583 ], [ 139.773512385790212, 35.701845020540162 ], [ 139.773351146000692, 35.700875593401811 ], [ 139.773119113367699, 35.699179029624318 ], [ 139.772968910571791, 35.697955615715927 ], [ 139.772832793879786, 35.696995541381789 ], [ 139.772660317254804, 35.695972497261451 ], [ 139.772338993355902, 35.695035902452183 ], [ 139.771610016273797, 35.693392184961311 ], [ 139.770930129193204, 35.692022946848986 ], [ 139.770427729508299, 35.690788006052081 ], [ 139.7694582218341, 35.688328315773013 ], [ 139.768793570707004, 35.686540488492682 ], [ 139.768184677423307, 35.685061690353223 ], [ 139.767856023128587, 35.684242200504507 ], [ 139.767328741722906, 35.68294360877335 ], [ 139.766797514120697, 35.681361418147922 ], [ 139.766118084379997, 35.679536358529177 ], [ 139.765685626536509, 35.678505773364137 ], [ 139.765256149643989, 35.677347053679092 ], [ 139.765152268135012, 35.676945631931893 ], [ 139.764693695571196, 35.676318469772383 ], [ 139.763947377514796, 35.675662412445632 ], [ 139.763136347904208, 35.675014997042382 ], [ 139.761739177367389, 35.673935414118851 ], [ 139.761131056571912, 35.673428273603577 ], [ 139.760587458822414, 35.672849952062784 ], [ 139.760203630602689, 35.67225176402188 ], [ 139.759536956789191, 35.671071213498173 ], [ 139.758546119873188, 35.669324106317717 ], [ 139.758209421289507, 35.668610674408818 ], [ 139.758071025866087, 35.668012999003352 ], [ 139.7579716369018, 35.667238487482827 ], [ 139.758093538672711, 35.666238651039308 ], [ 139.758235830243393, 35.665286919138417 ], [ 139.758431601077888, 35.664093627665679 ], [ 139.758573125586395, 35.662887886434952 ], [ 139.758567690343114, 35.66184596350115 ], [ 139.758470527957513, 35.660903165680097 ], [ 139.758182686380991, 35.659575785888158 ], [ 139.757913071803614, 35.65845208522353 ], [ 139.757371113872409, 35.656238252823663 ], [ 139.756905065766006, 35.654579837953257 ], [ 139.756723742194197, 35.653567498613668 ], [ 139.756458383294813, 35.652593498341439 ], [ 139.755648752617105, 35.650886735651177 ], [ 139.754876468228503, 35.649801037300577 ], [ 139.754157730187387, 35.649113757496792 ], [ 139.753172313815213, 35.648414854299098 ], [ 139.752150201758411, 35.647857060655888 ], [ 139.749775039539287, 35.646743068719971 ], [ 139.747981813664694, 35.6458714121393 ], [ 139.746330397549514, 35.645032320180107 ], [ 139.744686332617704, 35.644022400756278 ], [ 139.743756289833186, 35.64323052214781 ], [ 139.742438189061488, 35.641078438891043 ], [ 139.741645915573713, 35.639523669375059 ], [ 139.739487729762089, 35.635765999235872 ], [ 139.738829763797213, 35.634393673696813 ], [ 139.7384848835311, 35.633108444013168 ], [ 139.738535665421608, 35.630427131076488 ], [ 139.738781604754394, 35.626846535878592 ], [ 139.738767744494396, 35.625206209332617 ], [ 139.73799278797631, 35.621991184144633 ], [ 139.737557726234201, 35.620138642756046 ], [ 139.737253139507203, 35.619189774611797 ], [ 139.736799931876192, 35.618554369183713 ], [ 139.736271956025689, 35.617975120098428 ], [ 139.735474090822208, 35.617414359786828 ], [ 139.734705781387191, 35.617036531304102 ], [ 139.734051367769212, 35.616829174591281 ], [ 139.733388125693693, 35.616766577050889 ], [ 139.732354917189497, 35.616787073360207 ], [ 139.731506375194812, 35.616995809896991 ], [ 139.730631719651797, 35.617345354111009 ], [ 139.729713227589087, 35.6179411851586 ], [ 139.728928402987691, 35.618815712883212 ], [ 139.728292477891301, 35.619660287759892 ], [ 139.728164180209205, 35.619794517444177 ]]
    }
  },{
    "type": "Feature",
    "properties": {
      "name": "Shin-Okubo Station",
      "description": null
    },
    "geometry": {
      "type": "Point",
      "coordinates": [ 139.700175646525111, 35.700827756479669 ]
    }
  },{
    "type": "Feature",
    "properties": {
      "name": "Takadanobaba Station",
      "description": null
    },
    "geometry": {
      "type": "Point",
      "coordinates": [ 139.703864116320204, 35.712565050054778 ]
    }
  },{
    "type": "Feature",
    "properties": {
      "name": "Mejiro Station",
      "description": null
    },
    "geometry": {
      "type": "Point",
      "coordinates": [ 139.706531607737986, 35.721333850277809 ]
    }
  },{
    "type": "Feature",
    "properties": {
      "name": "Ikebukuro Station",
      "description": null
    },
    "geometry": {
      "type": "Point",
      "coordinates": [ 139.711030017880091, 35.729767129755707 ]
    }
  },{
    "type": "Feature",
    "properties": {
      "name": "Otsuka Station",
      "description": null
    },
    "geometry": {
      "type": "Point",
      "coordinates": [ 139.728076937109904, 35.731771294382654 ]
    }
  },{
    "type": "Feature",
    "properties": {
      "name": "Sugamo Station",
      "description": null
    },
    "geometry": {
      "type": "Point",
      "coordinates": [ 139.740055488294303, 35.733596775248742 ]
    }
  },{
    "type": "Feature",
    "properties": {
      "name": "Konmagome Station",
      "description": null
    },
    "geometry": {
      "type": "Point",
      "coordinates": [ 139.748324768069295, 35.737004540025758 ]
    }
  },{
    "type": "Feature",
    "properties": {
      "name": "Tabata Station",
      "description": null
    },
    "geometry": {
      "type": "Point",
      "coordinates": [ 139.761573046971591, 35.737462450080649 ]
    }
  },{
    "type": "Feature",
    "properties": {
      "name": "Nishi-Nippori Station",
      "description": null
    },
    "geometry": {
      "type": "Point",
      "coordinates": [ 139.766503712111188, 35.732329200530089 ]
    }
  },{
    "type": "Feature",
    "properties": {
      "name": "Nippori Station",
      "description": null
    },
    "geometry": {
      "type": "Point",
      "coordinates": [ 139.770601365873603, 35.728456529259432 ]
    }
  },{
    "type": "Feature",
    "properties": {
      "name": "Uguisudani Station",
      "description": null
    },
    "geometry": {
      "type": "Point",
      "coordinates": [ 139.778418125596005, 35.721110612461374 ]
    }
  },{
    "type": "Feature",
    "properties": {
      "name": "Kanda Station",
      "description": "Sound:  http:\/\/hisaai-hp.hp.infoseek.co.jp\/JREast\/057.mp3"
    },
    "geometry": {
      "type": "Point",
      "coordinates": [ 139.770890760860311, 35.691726946696818 ]
    }
  },{
    "type": "Feature",
    "properties": {
      "name": "Meguro Station",
      "description": "Sound 1:  http:\/\/hisaai-hp.hp.infoseek.co.jp\/JREast\/013.mp3\nSound 2:  http:\/\/hisaai-hp.hp.infoseek.co.jp\/JREast\/136.mp3"
    },
    "geometry": {
      "type": "Point",
      "coordinates": [ 139.715548725666508, 35.633259950635072 ]
    }
  },{
    "type": "Feature",
    "properties": {
      "name": "Okachimachi Station",
      "description": "Sound:  http:\/\/hisaai-hp.hp.infoseek.co.jp\/JREast\/075.mp3"},
      "geometry": { "type": "Point", "coordinates": [ 139.774669512572103, 35.707160473814461 ]
    }
  },{
    "type": "Feature",
    "properties": {
      "name": "Shibuya Station",
      "description": "Sound 1:  http:\/\/hisaai-hp.hp.infoseek.co.jp\/JREast\/071.mp3\nSound 2:  http:\/\/hisaai-hp.hp.infoseek.co.jp\/JREast\/123.mp3"
    },
    "geometry": {
      "type": "Point",
      "coordinates": [ 139.701605603997791, 35.658036861199477 ]
    }
  },{
    "type": "Feature",
    "properties": {
      "name": "Osaki Station",
      "description": "Sound 1:  http:\/\/hisaai-hp.hp.infoseek.co.jp\/JREast\/145.mp3\nSound 2:  http:\/\/hisaai-hp.hp.infoseek.co.jp\/JREast\/144.mp3\nSound 3:  http:\/\/hisaai-hp.hp.infoseek.co.jp\/JREast\/143.mp3\nSound 4:  http:\/\/hisaai-hp.hp.infoseek.co.jp\/JREast\/142.mp3"
    },
    "geometry": {
      "type": "Point",
      "coordinates": [ 139.728247009301811, 35.61991303362872 ]
    }
  },{
    "type": "Feature",
    "properties": {
      "name": "Shimbashi Station",
      "description": "Sound:  http:\/\/hisaai-hp.hp.infoseek.co.jp\/JREast\/011.mp3"
    },
    "geometry": {
      "type": "Point",
      "coordinates": [ 139.758392596917389, 35.666640425007493 ]
    }
  },{
    "type": "Feature",
    "properties": {
      "name": "Shinjuku Station",
      "description": "Sound 1:  http:\/\/hisaai-hp.hp.infoseek.co.jp\/JREast\/037.mp3\nSound 2:  http:\/\/hisaai-hp.hp.infoseek.co.jp\/JREast\/102.mp3"
    },
    "geometry": {
      "type": "Point",
      "coordinates": [ 139.7002911595103, 35.689614974840133 ]
    }
  },{
    "type": "Feature",
    "properties": {
      "name": "Akihabara Station",
      "description": "Sound:  http:\/\/hisaai-hp.hp.infoseek.co.jp\/JREast\/056.mp3"
    },
    "geometry": {
      "type": "Point",
      "coordinates": [ 139.773131580546988, 35.698274536935372 ]
    }
  },{
    "type": "Feature",
    "properties": {
      "name": "Ebisu Station",
      "description": "Sound 1:  http:\/\/hisaai-hp.hp.infoseek.co.jp\/JREast\/168.mp3\nSound 2:  http:\/\/hisaai-hp.hp.infoseek.co.jp\/JREast\/169.mp3"
    },
    "geometry": {
      "type": "Point",
      "coordinates": [ 139.711074108377289, 35.64490077330538 ]
    }
  },{
    "type": "Feature",
    "properties": {
      "name": "Gotanda Station",
      "description": "Sound 1:  http:\/\/hisaai-hp.hp.infoseek.co.jp\/JREast\/004.mp3\nSound 2:  http:\/\/hisaai-hp.hp.infoseek.co.jp\/JREast\/104.mp3"
    },
    "geometry": {
      "type": "Point",
      "coordinates": [ 139.723575527568102, 35.626517864309839 ]
    }
  },{
    "type": "Feature",
    "properties": {
      "name": "Hamamatsucho Station",
      "description": "Sound:  http:\/\/hisaai-hp.hp.infoseek.co.jp\/JREast\/057.mp3"
    },
    "geometry": {
      "type": "Point",
      "coordinates": [ 139.757333561487087, 35.65507454309811 ]
    }
  },{
    "type": "Feature",
    "properties": {
      "name": "Harajuku Station",
      "description": "Sound 1:  http:\/\/hisaai-hp.hp.infoseek.co.jp\/JREast\/039.mp3\nSound 2:  http:\/\/hisaai-hp.hp.infoseek.co.jp\/JREast\/038.mp3"
    },
    "geometry": {
      "type": "Point",
      "coordinates": [ 139.702648104228302, 35.671035656261552 ]
    }
  },{
    "type": "Feature",
    "properties": {
      "name": "Shinagawa Station",
      "description": "Sound 1:  http:\/\/hisaai-hp.hp.infoseek.co.jp\/JREast\/056.mp3\nSound 2:  http:\/\/hisaai-hp.hp.infoseek.co.jp\/JREast\/144.mp3"
    },
    "geometry": {
      "type": "Point",
      "coordinates": [ 139.738743933191813, 35.628167687609029 ]
    }
  },{
    "type": "Feature",
    "properties": {
      "name": "Tokyo Station",
      "description": "Sound:  http:\/\/hisaai-hp.hp.infoseek.co.jp\/JREast\/028.mp3"
    },
    "geometry": {
      "type": "Point",
      "coordinates": [ 139.767506944792899, 35.680799241517178 ]
    }
  },{
    "type": "Feature",
    "properties": {
      "name": "Ueno Station",
      "description": null
    },
    "geometry": {
      "type": "Point",
      "coordinates": [ 139.775777305926198, 35.712935521723722 ]
    }
  },{
    "type": "Feature",
    "properties": {
      "name": "Tamachi Station",
      "description": "Sound:  http:\/\/hisaai-hp.hp.infoseek.co.jp\/JREast\/057.mp3"
    },
    "geometry": {
      "type": "Point",
      "coordinates": [ 139.747515227228803, 35.64579101518909 ]
    }
  },{
    "type": "Feature",
    "properties": {
      "name": "Yoyogi Station",
      "description": "Sound:  http:\/\/hisaai-hp.hp.infoseek.co.jp\/JREast\/057.mp3"
    },
    "geometry": {
      "type": "Point",
      "coordinates": [ 139.702316114471614, 35.684068502082702 ]
    }
  },{
    "type": "Feature",
    "properties": {
      "name": "Yurakucho Station",
      "description": null
    },
    "geometry": {
      "type": "Point",
      "coordinates": [ 139.763261020685206, 35.674867011051823 ]
    }
  }
]
}
