<?xml version="1.0" encoding="UTF-8"?>
<svg width="20px" height="20px" viewBox="0 0 20 20" version="1.1" xmlns="http://www.w3.org/2000/svg" xmlns:xlink="http://www.w3.org/1999/xlink">
    <!-- Generator: Sketch 50.2 (55047) - http://www.bohemiancoding.com/sketch -->
    <title>g14</title>
    <desc>Created with Sketch.</desc>
    <defs></defs>
    <g id="Page-1" stroke="none" stroke-width="1" fill="none" fill-rule="evenodd">
        <g id="g14" transform="translate(10.000000, 9.996552) scale(-1, 1) rotate(-180.000000) translate(-10.000000, -9.996552) translate(0.000000, -0.003448)" fill-rule="nonzero">
            <path d="M9.80434619,19.603022 C4.39041891,19.603022 0,15.2168345 0,9.8061256 C0,4.39080269 4.39041891,0 9.80434619,0 C15.2183126,0 19.6064018,4.39080269 19.6064018,9.8061256 C19.6064018,15.2168345 15.2183126,19.603022 9.80434619,19.603022" id="path28" fill="#9C5E31"></path>
            <path d="M16.2344834,9.84192771 C16.2344834,6.30932067 13.3730772,3.44768132 9.84132879,3.44768132 C6.30997301,3.44768132 3.44827586,6.30932067 3.44827586,9.84192771 C3.44827586,13.3682425 6.30997301,16.230669 9.84132879,16.230669 C13.3730772,16.230669 16.2344834,13.3682425 16.2344834,9.84192771" id="path30" fill="#FFFFFF"></path>
        </g>
    </g>
</svg>