<?xml version="1.0" encoding="UTF-8"?>
<svg width="405px" height="596px" viewBox="0 0 405 596" version="1.1" xmlns="http://www.w3.org/2000/svg" xmlns:xlink="http://www.w3.org/1999/xlink">
    <!-- Generator: Sketch 40.3 (33839) - http://www.bohemiancoding.com/sketch -->
    <title>rock</title>
    <desc>Created with Sketch.</desc>
    <defs></defs>
    <g id="Page-1" stroke="none" stroke-width="1" fill="none" fill-rule="evenodd">
        <g id="rock" transform="translate(0.000000, -1.000000)" fill="#AAAAAA">
            <path d="M150.9541,552.1853 L128.9071,552.1853 C122.8191,552.1853 117.8831,557.1213 117.8831,563.2083 C117.8831,569.2963 122.8191,574.2333 128.9071,574.2333 L150.9541,574.2333 C157.0421,574.2333 161.9771,569.2963 161.9771,563.2083 C161.9771,557.1213 157.0431,552.1853 150.9541,552.1853" id="Fill-1"></path>
            <g id="Group-5" transform="translate(0.000000, 0.280000)">
                <path d="M366.5771,415.2109 L363.9311,427.8889 C361.5401,440.5359 360.3581,453.3809 360.4041,466.2509 L360.4041,488.2989 C353.1731,486.6369 345.7771,485.7859 338.3561,485.7629 L139.9311,485.7629 C132.5091,485.7549 125.1101,486.6069 117.8831,488.2989 L117.8831,470.9909 C117.8821,456.4439 110.7051,442.8329 98.7021,434.6129 L84.8111,425.0229 C63.2801,410.3719 47.0731,389.1379 38.6221,364.5019 L25.0631,325.5889 C21.2391,314.6339 20.9701,302.7529 24.2921,291.6359 L49.3151,211.7139 C63.6001,214.6209 75.5251,224.3999 81.1741,237.8399 L74.8901,338.0459 C74.4421,344.0209 78.8491,349.2579 84.8111,349.8409 L85.9141,349.8409 C91.7531,349.8519 96.5881,345.3079 96.9371,339.4789 L103.5521,237.0679 L116.0091,43.7119 C116.7651,32.0989 126.4181,23.0729 138.0561,23.0979 L139.9311,23.0979 C152.1071,23.0979 161.9771,32.9679 161.9771,45.1459 L161.9771,232.2179 C161.9771,238.3059 166.9141,243.2419 173.0021,243.2419 C179.0901,243.2419 184.0251,238.3059 184.0251,232.2179 L184.0251,221.1939 C184.0251,215.1069 188.9611,210.1699 195.0491,210.1699 L200.5601,210.1699 C215.7811,210.1699 228.1201,222.5089 228.1201,237.7299 L228.1201,243.2419 C228.1201,249.3299 233.0561,254.2649 239.1431,254.2649 C245.2311,254.2649 250.1671,249.3299 250.1671,243.2419 L250.1671,232.2179 C250.1671,226.1299 255.1031,221.1939 261.1911,221.1939 C279.4561,221.1939 294.2621,236.0009 294.2621,254.2649 C294.2621,260.3529 299.1981,265.2889 305.2861,265.2889 C311.3741,265.2889 316.3091,260.3529 316.3091,254.2649 L316.3091,129.3669 C316.4701,119.1999 324.8421,111.0889 335.0071,111.2489 C343.9721,111.3909 351.5311,117.9709 352.9081,126.8309 L372.0901,267.7139 C378.7931,316.8289 376.9291,366.7339 366.5771,415.2109 M382.4521,497.6689 L382.4521,496.7869 L382.4521,466.2509 C382.4891,455.1569 383.5221,444.0889 385.5381,433.1799 L388.2941,419.6209 C398.8881,368.8579 400.6401,316.6479 393.4751,265.2889 L374.8461,123.8549 C372.0011,101.6929 351.7301,86.0319 329.5681,88.8769 C309.2431,91.4849 294.0791,108.8769 294.2621,129.3669 L294.2621,210.1699 C284.7211,203.0149 273.1171,199.1469 261.1911,199.1469 C253.0761,199.1039 245.2301,202.0469 239.1431,207.4149 C229.9201,195.4099 215.6991,188.2989 200.5601,188.1229 L195.0491,188.1229 C191.2881,188.1529 187.5591,188.8239 184.0251,190.1069 L184.0251,44.8149 C184.0251,20.4619 164.2831,0.7199 139.9311,0.7199 L137.8361,0.7199 C114.5591,0.6699 95.2541,18.7219 93.7411,41.9489 L83.3791,204.9889 C74.5561,197.6049 64.0181,192.5629 52.7321,190.3279 C41.5601,188.0869 30.5211,194.7309 27.2681,205.6509 L3.2361,285.6829 C-1.4279,301.2749 -1.0419,317.9449 4.3391,333.3059 L17.8981,372.2189 C27.8891,401.0919 46.9041,425.9829 72.1351,443.2119 L86.2451,452.6919 C92.2791,456.8229 95.8711,463.6789 95.8361,470.9909 L95.8361,497.6689 C81.2841,508.6919 73.7881,526.3299 73.7881,551.4649 L73.7881,584.5349 C73.7881,590.6229 78.7231,595.5599 84.8111,595.5599 C90.8991,595.5599 95.8361,590.6229 95.8361,584.5349 L95.8361,551.9049 C95.8361,520.1569 108.1821,507.8109 139.9311,507.8109 L338.3561,507.8109 C371.4281,507.8109 382.4521,518.8339 382.4521,551.9049 L195.0491,551.9049 C188.9611,551.9049 184.0251,556.8409 184.0251,562.9289 C184.0251,569.0169 188.9611,573.9529 195.0491,573.9529 L382.4521,573.9529 L382.4521,584.9769 C382.4521,591.0649 387.3881,595.9999 393.4751,595.9999 C399.5631,595.9999 404.4991,591.0649 404.4991,584.9769 L404.4991,551.9049 C404.4991,526.1099 397.0031,507.8109 382.4521,497.6689" id="Fill-3"></path>
            </g>
        </g>
    </g>
</svg>